{
  "project_info": {
    "project_number": "649524096140",
    "firebase_url": "https://picasoid-cab90.firebaseio.com",
    "project_id": "picasoid-cab90",
    "storage_bucket": "picasoid-cab90.appspot.com"
  },
  "client": [
    {
      "client_info": {
        "mobilesdk_app_id": "1:649524096140:android:6a5b3e73337ace79245fa9",
        "android_client_info": {
          "package_name": "com.picasoid"
        }
      },
      "oauth_client": [
        {
          "client_id": "649524096140-fgmll8j4f9fo6j9qbrb6aoegtrt8o8u8.apps.googleusercontent.com",
          "client_type": 3
        }
      ],
      "api_key": [
        {
          "current_key": "AIzaSyCd28QF_Z67fgrEF2NmtcJYzK7OfHOkN6I"
        }
      ],
      "services": {
        "appinvite_service": {
          "other_platform_oauth_client": [
            {
              "client_id": "649524096140-fgmll8j4f9fo6j9qbrb6aoegtrt8o8u8.apps.googleusercontent.com",
              "client_type": 3
            }
          ]
        }
      }
    },
    {
      "client_info": {
        "mobilesdk_app_id": "1:649524096140:android:d92e4a5ba79fe1b6245fa9",
        "android_client_info": {
          "package_name": "com.picasoiddoctor"
        }
      },
      "oauth_client": [
        {
          "client_id": "649524096140-fgmll8j4f9fo6j9qbrb6aoegtrt8o8u8.apps.googleusercontent.com",
          "client_type": 3
        }
      ],
      "api_key": [
        {
          "current_key": "AIzaSyCd28QF_Z67fgrEF2NmtcJYzK7OfHOkN6I"
        }
      ],
      "services": {
        "appinvite_service": {
          "other_platform_oauth_client": [
            {
              "client_id": "649524096140-fgmll8j4f9fo6j9qbrb6aoegtrt8o8u8.apps.googleusercontent.com",
              "client_type": 3
            }
          ]
        }
      }
    },
    {
      "client_info": {
        "mobilesdk_app_id": "1:649524096140:android:2d5ab6c7ae774c35245fa9",
        "android_client_info": {
          "package_name": "com.picasoiddoctors"
        }
      },
      "oauth_client": [
        {
          "client_id": "649524096140-fgmll8j4f9fo6j9qbrb6aoegtrt8o8u8.apps.googleusercontent.com",
          "client_type": 3
        }
      ],
      "api_key": [
        {
          "current_key": "AIzaSyCd28QF_Z67fgrEF2NmtcJYzK7OfHOkN6I"
        }
      ],
      "services": {
        "appinvite_service": {
          "other_platform_oauth_client": [
            {
              "client_id": "649524096140-fgmll8j4f9fo6j9qbrb6aoegtrt8o8u8.apps.googleusercontent.com",
              "client_type": 3
            }
          ]
        }
      }
    },
    {
      "client_info": {
        "mobilesdk_app_id": "1:649524096140:android:1a0fbedecfdbd8d7245fa9",
        "android_client_info": {
          "package_name": "com.picasoiduser"
        }
      },
      "oauth_client": [
        {
          "client_id": "649524096140-fgmll8j4f9fo6j9qbrb6aoegtrt8o8u8.apps.googleusercontent.com",
          "client_type": 3
        }
      ],
      "api_key": [
        {
          "current_key": "AIzaSyCd28QF_Z67fgrEF2NmtcJYzK7OfHOkN6I"
        }
      ],
      "services": {
        "appinvite_service": {
          "other_platform_oauth_client": [
            {
              "client_id": "649524096140-fgmll8j4f9fo6j9qbrb6aoegtrt8o8u8.apps.googleusercontent.com",
              "client_type": 3
            }
          ]
        }
      }
    }
  ],
  "configuration_version": "1"
}